Categoria,2003,2004,2005,2006,2007,2008,2009,2010,2011,2012,2013,2014,2015,2016,Total
ARSON,293,280,231,240,246,248,222,209,203,237,248,253,311,117,3338
ASSAULT,13461,12899,11601,12449,12518,12681,12284,12388,12281,12181,12583,12405,13081,5020,167832
BAD CHECKS,134,79,101,87,69,78,64,54,45,49,26,34,37,9,866
BRIBERY,28,39,38,36,56,49,46,61,47,64,69,56,72,32,693
BURGLARY,6047,6753,7071,7004,5454,5679,5379,4966,4987,6244,6195,6070,5928,2182,79959
DISORDERLY CONDUCT,886,814,687,521,581,789,956,827,762,704,464,345,549,192,9077
DRIVING UNDER THE INFLUENCE,289,244,196,266,313,408,579,458,470,421,448,381,419,135,5027
DRUG/NARCOTIC,9917,9897,8533,9069,10560,11648,11950,9205,6935,6445,6775,5409,4250,1800,112393
DRUNKENNESS,662,600,636,703,671,710,804,706,652,644,954,620,576,186,9124
EMBEZZLEMENT,240,201,197,229,269,242,214,155,168,169,172,150,172,39,2617
EXTORTION,43,57,34,49,41,52,92,58,41,38,30,32,39,20,626
FAMILY OFFENSES,116,109,64,89,79,72,83,95,58,77,76,89,66,19,1092
FORGERY/COUNTERFEITING,2320,2292,2209,2306,2592,2468,2209,1089,820,990,913,750,750,217,21925
FRAUD,3285,2745,2494,2599,2349,2560,2513,2656,2756,2698,2752,2988,3116,947,36458
GAMBLING,27,25,29,28,37,27,28,10,17,18,22,8,29,6,311
KIDNAPPING,319,277,276,318,345,345,478,355,421,282,528,523,339,86,4892
LARCENY/THEFT,26393,24505,25319,27352,25770,25807,25585,24446,25905,30976,36412,38005,42007,13856,392338
LIQUOR LAWS,281,350,278,248,401,499,394,324,261,226,227,180,164,79,3912
LOITERING,175,236,273,96,430,441,126,187,124,135,54,36,27,24,2364
MISSING PERSON,3699,3675,3703,4253,4024,4335,3657,4513,4758,4372,4485,4735,4619,1566,56394
NON-CRIMINAL,13149,13778,14055,13368,12677,12303,12395,13878,15586,16936,21084,19404,19080,6758,204451
OTHER OFFENSES,21232,20710,17834,18306,19763,23457,24693,20990,19552,18648,19481,20742,20261,7409,273078
PORNOGRAPHY/OBSCENE MAT,3,3,5,6,4,5,0,4,3,2,5,2,4,1,47
PROSTITUTION,1952,1527,1103,1290,1873,1673,1468,1299,1094,690,692,449,372,297,15779
RECOVERED VEHICLE,0,0,0,1086,987,833,655,609,693,723,760,0,914,314,7574
ROBBERY,3204,3380,3566,4131,4027,4229,3578,3324,3376,3955,4196,3423,3754,1146,49289
RUNAWAY,366,431,388,382,273,259,340,293,320,329,214,221,149,56,4021
SECONDARY CODES,1273,1344,1001,1375,1475,1580,1783,1869,1815,1865,2001,1879,2033,664,21957
"SEX OFFENSES, FORCIBLE",698,698,638,599,631,682,682,733,735,791,760,845,910,333,9735
"SEX OFFENSES, NON FORCIBLE",28,31,24,29,39,20,17,30,29,28,18,20,19,13,345
STOLEN PROPERTY,800,641,540,575,527,518,660,680,785,932,1224,1086,957,336,10261
SUICIDE,93,102,79,86,111,100,83,82,76,86,73,70,79,25,1145
SUSPICIOUS OCC,4196,4489,4693,4775,4800,4751,4627,6004,6207,5860,5677,5230,5466,2040,68815
TREA,0,0,0,0,0,0,0,2,0,2,4,1,1,1,11
TRESPASS,1434,1191,1034,1102,1198,1151,1232,1150,1072,1288,1129,1125,1399,589,16094
VANDALISM,6448,6496,7013,7688,7566,7342,7604,7934,7243,7808,6921,7167,7671,2862,97763
VEHICLE THEFT,15325,17884,18194,7291,6460,6053,5183,4346,4762,6183,6241,7111,7942,2394,115369
WARRANTS,9079,8114,6708,6498,7105,5798,5764,6187,6311,6300,7362,6727,6737,2409,91099
WEAPON LAWS,1281,1252,1341,1324,1318,1419,1433,1349,1329,1460,1536,1580,1652,566,18840
