334,0,0.0006971468771537469,0.0006963436717983388,-0.0002319530382358312,-0.0004640137058603754,-0.00023243208744018,0.0004646546453554998,0.0002320606926010947,0.0002320068529302599,-0.0002319530382358312,-0.0004640137058603754,-0.0004645466447061967,-0.0009288897416771536,0.0002324383450134716,0.001394623879127141,0,0.0002320606926010947,0.0004640137058605198,-0.0002318992485005768,-0.0002319530382358312,0,0,0,0.0002320068529302599,0,-0.0002319530382358312,0,-0.0002320068529301155,-0.0006964995342913197,-0.0002322224354193606,0.0002322763752049011,0.0004647625485887287,0.0002321145572661611,0.0006961820778035729,0,-0.0004637984970011537,-0.0004640137058603754,0.0006963436717983388,0.0002319530382358312,0.0002318992485004326
338,-0.0004640137058603754,-0.00023243208744018,0.0004646546453554998,0.0002320606926010947,0.0002320068529302599,-0.0002319530382358312,-0.0004640137058603754,-0.0004645466447061967,-0.0009288897416771536,0.0002324383450134716,0.001394623879127141,0,0.0002320606926010947,0.0004640137058605198,-0.0002318992485005768,-0.0002319530382358312,0,0,0,0.0002320068529302599,0,-0.0002319530382358312,0,-0.0002320068529301155,-0.0006964995342913197,-0.0002322224354193606,0.0002322763752049011,0.0004647625485887287,0.0002321145572661611,0.0006961820778035729,0,-0.0004637984970011537,-0.0004640137058603754,0.0006963436717983388,0.0002319530382358312,0.0002318992485004326,-0.0009273819348282593,0.0002320606926010947,0.0004640137058605198,0
339,-0.00023243208744018,0.0004646546453554998,0.0002320606926010947,0.0002320068529302599,-0.0002319530382358312,-0.0004640137058603754,-0.0004645466447061967,-0.0009288897416771536,0.0002324383450134716,0.001394623879127141,0,0.0002320606926010947,0.0004640137058605198,-0.0002318992485005768,-0.0002319530382358312,0,0,0,0.0002320068529302599,0,-0.0002319530382358312,0,-0.0002320068529301155,-0.0006964995342913197,-0.0002322224354193606,0.0002322763752049011,0.0004647625485887287,0.0002321145572661611,0.0006961820778035729,0,-0.0004637984970011537,-0.0004640137058603754,0.0006963436717983388,0.0002319530382358312,0.0002318992485004326,-0.0009273819348282593,0.0002320606926010947,0.0004640137058605198,0,0.0002318992485004326
340,0.0004646546453554998,0.0002320606926010947,0.0002320068529302599,-0.0002319530382358312,-0.0004640137058603754,-0.0004645466447061967,-0.0009288897416771536,0.0002324383450134716,0.001394623879127141,0,0.0002320606926010947,0.0004640137058605198,-0.0002318992485005768,-0.0002319530382358312,0,0,0,0.0002320068529302599,0,-0.0002319530382358312,0,-0.0002320068529301155,-0.0006964995342913197,-0.0002322224354193606,0.0002322763752049011,0.0004647625485887287,0.0002321145572661611,0.0006961820778035729,0,-0.0004637984970011537,-0.0004640137058603754,0.0006963436717983388,0.0002319530382358312,0.0002318992485004326,-0.0009273819348282593,0.0002320606926010947,0.0004640137058605198,0,0.0002318992485004326,0.0006955364511212666
341,0.0002320606926010947,0.0002320068529302599,-0.0002319530382358312,-0.0004640137058603754,-0.0004645466447061967,-0.0009288897416771536,0.0002324383450134716,0.001394623879127141,0,0.0002320606926010947,0.0004640137058605198,-0.0002318992485005768,-0.0002319530382358312,0,0,0,0.0002320068529302599,0,-0.0002319530382358312,0,-0.0002320068529301155,-0.0006964995342913197,-0.0002322224354193606,0.0002322763752049011,0.0004647625485887287,0.0002321145572661611,0.0006961820778035729,0,-0.0004637984970011537,-0.0004640137058603754,0.0006963436717983388,0.0002319530382358312,0.0002318992485004326,-0.0009273819348282593,0.0002320606926010947,0.0004640137058605198,0,0.0002318992485004326,0.0006955364511212666,-0.000463368677608545
342,0.0002320068529302599,-0.0002319530382358312,-0.0004640137058603754,-0.0004645466447061967,-0.0009288897416771536,0.0002324383450134716,0.001394623879127141,0,0.0002320606926010947,0.0004640137058605198,-0.0002318992485005768,-0.0002319530382358312,0,0,0,0.0002320068529302599,0,-0.0002319530382358312,0,-0.0002320068529301155,-0.0006964995342913197,-0.0002322224354193606,0.0002322763752049011,0.0004647625485887287,0.0002321145572661611,0.0006961820778035729,0,-0.0004637984970011537,-0.0004640137058603754,0.0006963436717983388,0.0002319530382358312,0.0002318992485004326,-0.0009273819348282593,0.0002320606926010947,0.0004640137058605198,0,0.0002318992485004326,0.0006955364511212666,-0.000463368677608545,-0.0004635834876761907
343,-0.0002319530382358312,-0.0004640137058603754,-0.0004645466447061967,-0.0009288897416771536,0.0002324383450134716,0.001394623879127141,0,0.0002320606926010947,0.0004640137058605198,-0.0002318992485005768,-0.0002319530382358312,0,0,0,0.0002320068529302599,0,-0.0002319530382358312,0,-0.0002320068529301155,-0.0006964995342913197,-0.0002322224354193606,0.0002322763752049011,0.0004647625485887287,0.0002321145572661611,0.0006961820778035729,0,-0.0004637984970011537,-0.0004640137058603754,0.0006963436717983388,0.0002319530382358312,0.0002318992485004326,-0.0009273819348282593,0.0002320606926010947,0.0004640137058605198,0,0.0002318992485004326,0.0006955364511212666,-0.000463368677608545,-0.0004635834876761907,0
345,-0.0004645466447061967,-0.0009288897416771536,0.0002324383450134716,0.001394623879127141,0,0.0002320606926010947,0.0004640137058605198,-0.0002318992485005768,-0.0002319530382358312,0,0,0,0.0002320068529302599,0,-0.0002319530382358312,0,-0.0002320068529301155,-0.0006964995342913197,-0.0002322224354193606,0.0002322763752049011,0.0004647625485887287,0.0002321145572661611,0.0006961820778035729,0,-0.0004637984970011537,-0.0004640137058603754,0.0006963436717983388,0.0002319530382358312,0.0002318992485004326,-0.0009273819348282593,0.0002320606926010947,0.0004640137058605198,0,0.0002318992485004326,0.0006955364511212666,-0.000463368677608545,-0.0004635834876761907,0,0.0004637984970010094,-0.0002317917438381675
518,-0.0006978016226034767,-0.0002327629632413538,0.0002328171544521175,-0.0006982888897239166,-0.0009317024504347928,0.002098285491212231,0.0006979639694002654,0.0002324923851588508,0.0002324383450134716,-0.0004647686599689505,0.0006974771554764077,0.0004646606801081334,-0.001393334612515731,0.0004650929008754019,-0.0002324383450136162,0,0.0002324923851588508,0.0004648766900270878,-0.000232330340054139,0.000697152989953498,-0.0004644448708385768,0.001161969525632917,0.0002320606926010947,0,0.0002320068529302599,-0.000463906076471518,0.0002320606926010947,-0.0002320068529301155,0,-0.0002320606926012391,0.0002321145572661611,0.0002320606926010947,0.0004640137058605198,0.0004637984970010094,-0.0002317917438381675,-0.0002318454837069927,0.0004637984970010094,-0.0004635834876761907,0.0002318992485004326,-0.0004636909674141297
521,-0.0006982888897239166,-0.0009317024504347928,0.002098285491212231,0.0006979639694002654,0.0002324923851588508,0.0002324383450134716,-0.0004647686599689505,0.0006974771554764077,0.0004646606801081334,-0.001393334612515731,0.0004650929008754019,-0.0002324383450136162,0,0.0002324923851588508,0.0004648766900270878,-0.000232330340054139,0.000697152989953498,-0.0004644448708385768,0.001161969525632917,0.0002320606926010947,0,0.0002320068529302599,-0.000463906076471518,0.0002320606926010947,-0.0002320068529301155,0,-0.0002320606926012391,0.0002321145572661611,0.0002320606926010947,0.0004640137058605198,0.0004637984970010094,-0.0002317917438381675,-0.0002318454837069927,0.0004637984970010094,-0.0004635834876761907,0.0002318992485004326,-0.0004636909674141297,0.0006958591147073491,0.0002317917438380233,-0.0002317380288761965
525,0.0002324923851588508,0.0002324383450134716,-0.0004647686599689505,0.0006974771554764077,0.0004646606801081334,-0.001393334612515731,0.0004650929008754019,-0.0002324383450136162,0,0.0002324923851588508,0.0004648766900270878,-0.000232330340054139,0.000697152989953498,-0.0004644448708385768,0.001161969525632917,0.0002320606926010947,0,0.0002320068529302599,-0.000463906076471518,0.0002320606926010947,-0.0002320068529301155,0,-0.0002320606926012391,0.0002321145572661611,0.0002320606926010947,0.0004640137058605198,0.0004637984970010094,-0.0002317917438381675,-0.0002318454837069927,0.0004637984970010094,-0.0004635834876761907,0.0002318992485004326,-0.0004636909674141297,0.0006958591147073491,0.0002317917438380233,-0.0002317380288761965,-0.0006953752315143582,0.000463906076471518,-0.0002318454837069927,-0.0002318992485005768
526,0.0002324383450134716,-0.0004647686599689505,0.0006974771554764077,0.0004646606801081334,-0.001393334612515731,0.0004650929008754019,-0.0002324383450136162,0,0.0002324923851588508,0.0004648766900270878,-0.000232330340054139,0.000697152989953498,-0.0004644448708385768,0.001161969525632917,0.0002320606926010947,0,0.0002320068529302599,-0.000463906076471518,0.0002320606926010947,-0.0002320068529301155,0,-0.0002320606926012391,0.0002321145572661611,0.0002320606926010947,0.0004640137058605198,0.0004637984970010094,-0.0002317917438381675,-0.0002318454837069927,0.0004637984970010094,-0.0004635834876761907,0.0002318992485004326,-0.0004636909674141297,0.0006958591147073491,0.0002317917438380233,-0.0002317380288761965,-0.0006953752315143582,0.000463906076471518,-0.0002318454837069927,-0.0002318992485005768,0.001159765191178867
527,-0.0004647686599689505,0.0006974771554764077,0.0004646606801081334,-0.001393334612515731,0.0004650929008754019,-0.0002324383450136162,0,0.0002324923851588508,0.0004648766900270878,-0.000232330340054139,0.000697152989953498,-0.0004644448708385768,0.001161969525632917,0.0002320606926010947,0,0.0002320068529302599,-0.000463906076471518,0.0002320606926010947,-0.0002320068529301155,0,-0.0002320606926012391,0.0002321145572661611,0.0002320606926010947,0.0004640137058605198,0.0004637984970010094,-0.0002317917438381675,-0.0002318454837069927,0.0004637984970010094,-0.0004635834876761907,0.0002318992485004326,-0.0004636909674141297,0.0006958591147073491,0.0002317917438380233,-0.0002317380288761965,-0.0006953752315143582,0.000463906076471518,-0.0002318454837069927,-0.0002318992485005768,0.001159765191178867,-0.000463368677608545
528,0.0006974771554764077,0.0004646606801081334,-0.001393334612515731,0.0004650929008754019,-0.0002324383450136162,0,0.0002324923851588508,0.0004648766900270878,-0.000232330340054139,0.000697152989953498,-0.0004644448708385768,0.001161969525632917,0.0002320606926010947,0,0.0002320068529302599,-0.000463906076471518,0.0002320606926010947,-0.0002320068529301155,0,-0.0002320606926012391,0.0002321145572661611,0.0002320606926010947,0.0004640137058605198,0.0004637984970010094,-0.0002317917438381675,-0.0002318454837069927,0.0004637984970010094,-0.0004635834876761907,0.0002318992485004326,-0.0004636909674141297,0.0006958591147073491,0.0002317917438380233,-0.0002317380288761965,-0.0006953752315143582,0.000463906076471518,-0.0002318454837069927,-0.0002318992485005768,0.001159765191178867,-0.000463368677608545,-0.0004635834876761907
531,0.0004650929008754019,-0.0002324383450136162,0,0.0002324923851588508,0.0004648766900270878,-0.000232330340054139,0.000697152989953498,-0.0004644448708385768,0.001161969525632917,0.0002320606926010947,0,0.0002320068529302599,-0.000463906076471518,0.0002320606926010947,-0.0002320068529301155,0,-0.0002320606926012391,0.0002321145572661611,0.0002320606926010947,0.0004640137058605198,0.0004637984970010094,-0.0002317917438381675,-0.0002318454837069927,0.0004637984970010094,-0.0004635834876761907,0.0002318992485004326,-0.0004636909674141297,0.0006958591147073491,0.0002317917438380233,-0.0002317380288761965,-0.0006953752315143582,0.000463906076471518,-0.0002318454837069927,-0.0002318992485005768,0.001159765191178867,-0.000463368677608545,-0.0004635834876761907,0.0004637984970010094,0,0
532,-0.0002324383450136162,0,0.0002324923851588508,0.0004648766900270878,-0.000232330340054139,0.000697152989953498,-0.0004644448708385768,0.001161969525632917,0.0002320606926010947,0,0.0002320068529302599,-0.000463906076471518,0.0002320606926010947,-0.0002320068529301155,0,-0.0002320606926012391,0.0002321145572661611,0.0002320606926010947,0.0004640137058605198,0.0004637984970010094,-0.0002317917438381675,-0.0002318454837069927,0.0004637984970010094,-0.0004635834876761907,0.0002318992485004326,-0.0004636909674141297,0.0006958591147073491,0.0002317917438380233,-0.0002317380288761965,-0.0006953752315143582,0.000463906076471518,-0.0002318454837069927,-0.0002318992485005768,0.001159765191178867,-0.000463368677608545,-0.0004635834876761907,0.0004637984970010094,0,0,-0.0002317917438381675
533,0,0.0002324923851588508,0.0004648766900270878,-0.000232330340054139,0.000697152989953498,-0.0004644448708385768,0.001161969525632917,0.0002320606926010947,0,0.0002320068529302599,-0.000463906076471518,0.0002320606926010947,-0.0002320068529301155,0,-0.0002320606926012391,0.0002321145572661611,0.0002320606926010947,0.0004640137058605198,0.0004637984970010094,-0.0002317917438381675,-0.0002318454837069927,0.0004637984970010094,-0.0004635834876761907,0.0002318992485004326,-0.0004636909674141297,0.0006958591147073491,0.0002317917438380233,-0.0002317380288761965,-0.0006953752315143582,0.000463906076471518,-0.0002318454837069927,-0.0002318992485005768,0.001159765191178867,-0.000463368677608545,-0.0004635834876761907,0.0004637984970010094,0,0,-0.0002317917438381675,0.000231845483707137
534,0.0002324923851588508,0.0004648766900270878,-0.000232330340054139,0.000697152989953498,-0.0004644448708385768,0.001161969525632917,0.0002320606926010947,0,0.0002320068529302599,-0.000463906076471518,0.0002320606926010947,-0.0002320068529301155,0,-0.0002320606926012391,0.0002321145572661611,0.0002320606926010947,0.0004640137058605198,0.0004637984970010094,-0.0002317917438381675,-0.0002318454837069927,0.0004637984970010094,-0.0004635834876761907,0.0002318992485004326,-0.0004636909674141297,0.0006958591147073491,0.0002317917438380233,-0.0002317380288761965,-0.0006953752315143582,0.000463906076471518,-0.0002318454837069927,-0.0002318992485005768,0.001159765191178867,-0.000463368677608545,-0.0004635834876761907,0.0004637984970010094,0,0,-0.0002317917438381675,0.000231845483707137,-0.0002317917438381675
535,0.0004648766900270878,-0.000232330340054139,0.000697152989953498,-0.0004644448708385768,0.001161969525632917,0.0002320606926010947,0,0.0002320068529302599,-0.000463906076471518,0.0002320606926010947,-0.0002320068529301155,0,-0.0002320606926012391,0.0002321145572661611,0.0002320606926010947,0.0004640137058605198,0.0004637984970010094,-0.0002317917438381675,-0.0002318454837069927,0.0004637984970010094,-0.0004635834876761907,0.0002318992485004326,-0.0004636909674141297,0.0006958591147073491,0.0002317917438380233,-0.0002317380288761965,-0.0006953752315143582,0.000463906076471518,-0.0002318454837069927,-0.0002318992485005768,0.001159765191178867,-0.000463368677608545,-0.0004635834876761907,0.0004637984970010094,0,0,-0.0002317917438381675,0.000231845483707137,-0.0002317917438381675,0.000231845483707137
536,-0.000232330340054139,0.000697152989953498,-0.0004644448708385768,0.001161969525632917,0.0002320606926010947,0,0.0002320068529302599,-0.000463906076471518,0.0002320606926010947,-0.0002320068529301155,0,-0.0002320606926012391,0.0002321145572661611,0.0002320606926010947,0.0004640137058605198,0.0004637984970010094,-0.0002317917438381675,-0.0002318454837069927,0.0004637984970010094,-0.0004635834876761907,0.0002318992485004326,-0.0004636909674141297,0.0006958591147073491,0.0002317917438380233,-0.0002317380288761965,-0.0006953752315143582,0.000463906076471518,-0.0002318454837069927,-0.0002318992485005768,0.001159765191178867,-0.000463368677608545,-0.0004635834876761907,0.0004637984970010094,0,0,-0.0002317917438381675,0.000231845483707137,-0.0002317917438381675,0.000231845483707137,0
537,0.000697152989953498,-0.0004644448708385768,0.001161969525632917,0.0002320606926010947,0,0.0002320068529302599,-0.000463906076471518,0.0002320606926010947,-0.0002320068529301155,0,-0.0002320606926012391,0.0002321145572661611,0.0002320606926010947,0.0004640137058605198,0.0004637984970010094,-0.0002317917438381675,-0.0002318454837069927,0.0004637984970010094,-0.0004635834876761907,0.0002318992485004326,-0.0004636909674141297,0.0006958591147073491,0.0002317917438380233,-0.0002317380288761965,-0.0006953752315143582,0.000463906076471518,-0.0002318454837069927,-0.0002318992485005768,0.001159765191178867,-0.000463368677608545,-0.0004635834876761907,0.0004637984970010094,0,0,-0.0002317917438381675,0.000231845483707137,-0.0002317917438381675,0.000231845483707137,0,0.0002317917438380233
538,-0.0004644448708385768,0.001161969525632917,0.0002320606926010947,0,0.0002320068529302599,-0.000463906076471518,0.0002320606926010947,-0.0002320068529301155,0,-0.0002320606926012391,0.0002321145572661611,0.0002320606926010947,0.0004640137058605198,0.0004637984970010094,-0.0002317917438381675,-0.0002318454837069927,0.0004637984970010094,-0.0004635834876761907,0.0002318992485004326,-0.0004636909674141297,0.0006958591147073491,0.0002317917438380233,-0.0002317380288761965,-0.0006953752315143582,0.000463906076471518,-0.0002318454837069927,-0.0002318992485005768,0.001159765191178867,-0.000463368677608545,-0.0004635834876761907,0.0004637984970010094,0,0,-0.0002317917438381675,0.000231845483707137,-0.0002317917438381675,0.000231845483707137,0,0.0002317917438380233,0.0002317380288763406
539,0.001161969525632917,0.0002320606926010947,0,0.0002320068529302599,-0.000463906076471518,0.0002320606926010947,-0.0002320068529301155,0,-0.0002320606926012391,0.0002321145572661611,0.0002320606926010947,0.0004640137058605198,0.0004637984970010094,-0.0002317917438381675,-0.0002318454837069927,0.0004637984970010094,-0.0004635834876761907,0.0002318992485004326,-0.0004636909674141297,0.0006958591147073491,0.0002317917438380233,-0.0002317380288761965,-0.0006953752315143582,0.000463906076471518,-0.0002318454837069927,-0.0002318992485005768,0.001159765191178867,-0.000463368677608545,-0.0004635834876761907,0.0004637984970010094,0,0,-0.0002317917438381675,0.000231845483707137,-0.0002317917438381675,0.000231845483707137,0,0.0002317917438380233,0.0002317380288763406,0.0002316843388042005
540,0.0002320606926010947,0,0.0002320068529302599,-0.000463906076471518,0.0002320606926010947,-0.0002320068529301155,0,-0.0002320606926012391,0.0002321145572661611,0.0002320606926010947,0.0004640137058605198,0.0004637984970010094,-0.0002317917438381675,-0.0002318454837069927,0.0004637984970010094,-0.0004635834876761907,0.0002318992485004326,-0.0004636909674141297,0.0006958591147073491,0.0002317917438380233,-0.0002317380288761965,-0.0006953752315143582,0.000463906076471518,-0.0002318454837069927,-0.0002318992485005768,0.001159765191178867,-0.000463368677608545,-0.0004635834876761907,0.0004637984970010094,0,0,-0.0002317917438381675,0.000231845483707137,-0.0002317917438381675,0.000231845483707137,0,0.0002317917438380233,0.0002317380288763406,0.0002316843388042005,0.00115815336802413
541,0,0.0002320068529302599,-0.000463906076471518,0.0002320606926010947,-0.0002320068529301155,0,-0.0002320606926012391,0.0002321145572661611,0.0002320606926010947,0.0004640137058605198,0.0004637984970010094,-0.0002317917438381675,-0.0002318454837069927,0.0004637984970010094,-0.0004635834876761907,0.0002318992485004326,-0.0004636909674141297,0.0006958591147073491,0.0002317917438380233,-0.0002317380288761965,-0.0006953752315143582,0.000463906076471518,-0.0002318454837069927,-0.0002318992485005768,0.001159765191178867,-0.000463368677608545,-0.0004635834876761907,0.0004637984970010094,0,0,-0.0002317917438381675,0.000231845483707137,-0.0002317917438381675,0.000231845483707137,0,0.0002317917438380233,0.0002317380288763406,0.0002316843388042005,0.00115815336802413,0.0004627254401826053
542,0.0002320068529302599,-0.000463906076471518,0.0002320606926010947,-0.0002320068529301155,0,-0.0002320606926012391,0.0002321145572661611,0.0002320606926010947,0.0004640137058605198,0.0004637984970010094,-0.0002317917438381675,-0.0002318454837069927,0.0004637984970010094,-0.0004635834876761907,0.0002318992485004326,-0.0004636909674141297,0.0006958591147073491,0.0002317917438380233,-0.0002317380288761965,-0.0006953752315143582,0.000463906076471518,-0.0002318454837069927,-0.0002318992485005768,0.001159765191178867,-0.000463368677608545,-0.0004635834876761907,0.0004637984970010094,0,0,-0.0002317917438381675,0.000231845483707137,-0.0002317917438381675,0.000231845483707137,0,0.0002317917438380233,0.0002317380288763406,0.0002316843388042005,0.00115815336802413,0.0004627254401826053,-0.001156278560950496
543,-0.000463906076471518,0.0002320606926010947,-0.0002320068529301155,0,-0.0002320606926012391,0.0002321145572661611,0.0002320606926010947,0.0004640137058605198,0.0004637984970010094,-0.0002317917438381675,-0.0002318454837069927,0.0004637984970010094,-0.0004635834876761907,0.0002318992485004326,-0.0004636909674141297,0.0006958591147073491,0.0002317917438380233,-0.0002317380288761965,-0.0006953752315143582,0.000463906076471518,-0.0002318454837069927,-0.0002318992485005768,0.001159765191178867,-0.000463368677608545,-0.0004635834876761907,0.0004637984970010094,0,0,-0.0002317917438381675,0.000231845483707137,-0.0002317917438381675,0.000231845483707137,0,0.0002317917438380233,0.0002317380288763406,0.0002316843388042005,0.00115815336802413,0.0004627254401826053,-0.001156278560950496,-0.0004630468355087843
544,0.0002320606926010947,-0.0002320068529301155,0,-0.0002320606926012391,0.0002321145572661611,0.0002320606926010947,0.0004640137058605198,0.0004637984970010094,-0.0002317917438381675,-0.0002318454837069927,0.0004637984970010094,-0.0004635834876761907,0.0002318992485004326,-0.0004636909674141297,0.0006958591147073491,0.0002317917438380233,-0.0002317380288761965,-0.0006953752315143582,0.000463906076471518,-0.0002318454837069927,-0.0002318992485005768,0.001159765191178867,-0.000463368677608545,-0.0004635834876761907,0.0004637984970010094,0,0,-0.0002317917438381675,0.000231845483707137,-0.0002317917438381675,0.000231845483707137,0,0.0002317917438380233,0.0002317380288763406,0.0002316843388042005,0.00115815336802413,0.0004627254401826053,-0.001156278560950496,-0.0004630468355087843,0.0004632613472096233
545,-0.0002320068529301155,0,-0.0002320606926012391,0.0002321145572661611,0.0002320606926010947,0.0004640137058605198,0.0004637984970010094,-0.0002317917438381675,-0.0002318454837069927,0.0004637984970010094,-0.0004635834876761907,0.0002318992485004326,-0.0004636909674141297,0.0006958591147073491,0.0002317917438380233,-0.0002317380288761965,-0.0006953752315143582,0.000463906076471518,-0.0002318454837069927,-0.0002318992485005768,0.001159765191178867,-0.000463368677608545,-0.0004635834876761907,0.0004637984970010094,0,0,-0.0002317917438381675,0.000231845483707137,-0.0002317917438381675,0.000231845483707137,0,0.0002317917438380233,0.0002317380288763406,0.0002316843388042005,0.00115815336802413,0.0004627254401826053,-0.001156278560950496,-0.0004630468355087843,0.0004632613472096233,0.0002315234177544642
546,0,-0.0002320606926012391,0.0002321145572661611,0.0002320606926010947,0.0004640137058605198,0.0004637984970010094,-0.0002317917438381675,-0.0002318454837069927,0.0004637984970010094,-0.0004635834876761907,0.0002318992485004326,-0.0004636909674141297,0.0006958591147073491,0.0002317917438380233,-0.0002317380288761965,-0.0006953752315143582,0.000463906076471518,-0.0002318454837069927,-0.0002318992485005768,0.001159765191178867,-0.000463368677608545,-0.0004635834876761907,0.0004637984970010094,0,0,-0.0002317917438381675,0.000231845483707137,-0.0002317917438381675,0.000231845483707137,0,0.0002317917438380233,0.0002317380288763406,0.0002316843388042005,0.00115815336802413,0.0004627254401826053,-0.001156278560950496,-0.0004630468355087843,0.0004632613472096233,0.0002315234177544642,-0.0002314698270689941
547,-0.0002320606926012391,0.0002321145572661611,0.0002320606926010947,0.0004640137058605198,0.0004637984970010094,-0.0002317917438381675,-0.0002318454837069927,0.0004637984970010094,-0.0004635834876761907,0.0002318992485004326,-0.0004636909674141297,0.0006958591147073491,0.0002317917438380233,-0.0002317380288761965,-0.0006953752315143582,0.000463906076471518,-0.0002318454837069927,-0.0002318992485005768,0.001159765191178867,-0.000463368677608545,-0.0004635834876761907,0.0004637984970010094,0,0,-0.0002317917438381675,0.000231845483707137,-0.0002317917438381675,0.000231845483707137,0,0.0002317917438380233,0.0002317380288763406,0.0002316843388042005,0.00115815336802413,0.0004627254401826053,-0.001156278560950496,-0.0004630468355087843,0.0004632613472096233,0.0002315234177544642,-0.0002314698270689941,0
548,0.0002321145572661611,0.0002320606926010947,0.0004640137058605198,0.0004637984970010094,-0.0002317917438381675,-0.0002318454837069927,0.0004637984970010094,-0.0004635834876761907,0.0002318992485004326,-0.0004636909674141297,0.0006958591147073491,0.0002317917438380233,-0.0002317380288761965,-0.0006953752315143582,0.000463906076471518,-0.0002318454837069927,-0.0002318992485005768,0.001159765191178867,-0.000463368677608545,-0.0004635834876761907,0.0004637984970010094,0,0,-0.0002317917438381675,0.000231845483707137,-0.0002317917438381675,0.000231845483707137,0,0.0002317917438380233,0.0002317380288763406,0.0002316843388042005,0.00115815336802413,0.0004627254401826053,-0.001156278560950496,-0.0004630468355087843,0.0004632613472096233,0.0002315234177544642,-0.0002314698270689941,0,0
549,0.0002320606926010947,0.0004640137058605198,0.0004637984970010094,-0.0002317917438381675,-0.0002318454837069927,0.0004637984970010094,-0.0004635834876761907,0.0002318992485004326,-0.0004636909674141297,0.0006958591147073491,0.0002317917438380233,-0.0002317380288761965,-0.0006953752315143582,0.000463906076471518,-0.0002318454837069927,-0.0002318992485005768,0.001159765191178867,-0.000463368677608545,-0.0004635834876761907,0.0004637984970010094,0,0,-0.0002317917438381675,0.000231845483707137,-0.0002317917438381675,0.000231845483707137,0,0.0002317917438380233,0.0002317380288763406,0.0002316843388042005,0.00115815336802413,0.0004627254401826053,-0.001156278560950496,-0.0004630468355087843,0.0004632613472096233,0.0002315234177544642,-0.0002314698270689941,0,0,0.0002315234177544642
550,0.0004640137058605198,0.0004637984970010094,-0.0002317917438381675,-0.0002318454837069927,0.0004637984970010094,-0.0004635834876761907,0.0002318992485004326,-0.0004636909674141297,0.0006958591147073491,0.0002317917438380233,-0.0002317380288761965,-0.0006953752315143582,0.000463906076471518,-0.0002318454837069927,-0.0002318992485005768,0.001159765191178867,-0.000463368677608545,-0.0004635834876761907,0.0004637984970010094,0,0,-0.0002317917438381675,0.000231845483707137,-0.0002317917438381675,0.000231845483707137,0,0.0002317917438380233,0.0002317380288763406,0.0002316843388042005,0.00115815336802413,0.0004627254401826053,-0.001156278560950496,-0.0004630468355087843,0.0004632613472096233,0.0002315234177544642,-0.0002314698270689941,0,0,0.0002315234177544642,0.0006944094812066944
551,0.0004637984970010094,-0.0002317917438381675,-0.0002318454837069927,0.0004637984970010094,-0.0004635834876761907,0.0002318992485004326,-0.0004636909674141297,0.0006958591147073491,0.0002317917438380233,-0.0002317380288761965,-0.0006953752315143582,0.000463906076471518,-0.0002318454837069927,-0.0002318992485005768,0.001159765191178867,-0.000463368677608545,-0.0004635834876761907,0.0004637984970010094,0,0,-0.0002317917438381675,0.000231845483707137,-0.0002317917438381675,0.000231845483707137,0,0.0002317917438380233,0.0002317380288763406,0.0002316843388042005,0.00115815336802413,0.0004627254401826053,-0.001156278560950496,-0.0004630468355087843,0.0004632613472096233,0.0002315234177544642,-0.0002314698270689941,0,0,0.0002315234177544642,0.0006944094812066944,0.0009252368150589501
552,-0.0002317917438381675,-0.0002318454837069927,0.0004637984970010094,-0.0004635834876761907,0.0002318992485004326,-0.0004636909674141297,0.0006958591147073491,0.0002317917438380233,-0.0002317380288761965,-0.0006953752315143582,0.000463906076471518,-0.0002318454837069927,-0.0002318992485005768,0.001159765191178867,-0.000463368677608545,-0.0004635834876761907,0.0004637984970010094,0,0,-0.0002317917438381675,0.000231845483707137,-0.0002317917438381675,0.000231845483707137,0,0.0002317917438380233,0.0002317380288763406,0.0002316843388042005,0.00115815336802413,0.0004627254401826053,-0.001156278560950496,-0.0004630468355087843,0.0004632613472096233,0.0002315234177544642,-0.0002314698270689941,0,0,0.0002315234177544642,0.0006944094812066944,0.0009252368150589501,-0.0006932861574179268
553,-0.0002318454837069927,0.0004637984970010094,-0.0004635834876761907,0.0002318992485004326,-0.0004636909674141297,0.0006958591147073491,0.0002317917438380233,-0.0002317380288761965,-0.0006953752315143582,0.000463906076471518,-0.0002318454837069927,-0.0002318992485005768,0.001159765191178867,-0.000463368677608545,-0.0004635834876761907,0.0004637984970010094,0,0,-0.0002317917438381675,0.000231845483707137,-0.0002317917438381675,0.000231845483707137,0,0.0002317917438380233,0.0002317380288763406,0.0002316843388042005,0.00115815336802413,0.0004627254401826053,-0.001156278560950496,-0.0004630468355087843,0.0004632613472096233,0.0002315234177544642,-0.0002314698270689941,0,0,0.0002315234177544642,0.0006944094812066944,0.0009252368150589501,-0.0006932861574179268,0.0002312557121900128
556,0.0002318992485004326,-0.0004636909674141297,0.0006958591147073491,0.0002317917438380233,-0.0002317380288761965,-0.0006953752315143582,0.000463906076471518,-0.0002318454837069927,-0.0002318992485005768,0.001159765191178867,-0.000463368677608545,-0.0004635834876761907,0.0004637984970010094,0,0,-0.0002317917438381675,0.000231845483707137,-0.0002317917438381675,0.000231845483707137,0,0.0002317917438380233,0.0002317380288763406,0.0002316843388042005,0.00115815336802413,0.0004627254401826053,-0.001156278560950496,-0.0004630468355087843,0.0004632613472096233,0.0002315234177544642,-0.0002314698270689941,0,0,0.0002315234177544642,0.0006944094812066944,0.0009252368150589501,-0.0006932861574179268,0.0002312557121900128,-0.0006936067360504572,0.0009254508803652106,-0.0006934464096836521
557,-0.0004636909674141297,0.0006958591147073491,0.0002317917438380233,-0.0002317380288761965,-0.0006953752315143582,0.000463906076471518,-0.0002318454837069927,-0.0002318992485005768,0.001159765191178867,-0.000463368677608545,-0.0004635834876761907,0.0004637984970010094,0,0,-0.0002317917438381675,0.000231845483707137,-0.0002317917438381675,0.000231845483707137,0,0.0002317917438380233,0.0002317380288763406,0.0002316843388042005,0.00115815336802413,0.0004627254401826053,-0.001156278560950496,-0.0004630468355087843,0.0004632613472096233,0.0002315234177544642,-0.0002314698270689941,0,0,0.0002315234177544642,0.0006944094812066944,0.0009252368150589501,-0.0006932861574179268,0.0002312557121900128,-0.0006936067360504572,0.0009254508803652106,-0.0006934464096836521,-0.0002313092037646656
559,0.0002317917438380233,-0.0002317380288761965,-0.0006953752315143582,0.000463906076471518,-0.0002318454837069927,-0.0002318992485005768,0.001159765191178867,-0.000463368677608545,-0.0004635834876761907,0.0004637984970010094,0,0,-0.0002317917438381675,0.000231845483707137,-0.0002317917438381675,0.000231845483707137,0,0.0002317917438380233,0.0002317380288763406,0.0002316843388042005,0.00115815336802413,0.0004627254401826053,-0.001156278560950496,-0.0004630468355087843,0.0004632613472096233,0.0002315234177544642,-0.0002314698270689941,0,0,0.0002315234177544642,0.0006944094812066944,0.0009252368150589501,-0.0006932861574179268,0.0002312557121900128,-0.0006936067360504572,0.0009254508803652106,-0.0006934464096836521,-0.0002313092037646656,0.0002313627200912307,0
628,-0.0002329256126086258,0.000698939638769559,0,-0.0004656343089040902,0,-0.0002329256126086258,0.0009319195183595087,0.0009310518529651257,0.0002325464504376286,0.000464984770317557,-0.000232384329984403,0,0,-0.0004648766900270878,-0.0004650929008754019,0,-0.001163273282333969,0.0009317024504347928,0.0006981263917562546,0.0004650929008754019,0.001162191725067647,-0.0004643370413599769,-0.0002322763752047566,-0.000232330340054139,0.0002323843299845475,-0.000232330340054139,0,-0.0009295373199379011,-0.0004652010817356993,-0.0002327087972519884,-0.0006982888897239166,0.0002329256126087707,-0.0004657427418039437,-0.0004659597591797543,0.0009323539577851485,0.0002328713709018994,0.0004656343089040902,-0.0002327087972519884,0.0006982888897237719,0.000232600540867922
629,0.000698939638769559,0,-0.0004656343089040902,0,-0.0002329256126086258,0.0009319195183595087,0.0009310518529651257,0.0002325464504376286,0.000464984770317557,-0.000232384329984403,0,0,-0.0004648766900270878,-0.0004650929008754019,0,-0.001163273282333969,0.0009317024504347928,0.0006981263917562546,0.0004650929008754019,0.001162191725067647,-0.0004643370413599769,-0.0002322763752047566,-0.000232330340054139,0.0002323843299845475,-0.000232330340054139,0,-0.0009295373199379011,-0.0004652010817356993,-0.0002327087972519884,-0.0006982888897239166,0.0002329256126087707,-0.0004657427418039437,-0.0004659597591797543,0.0009323539577851485,0.0002328713709018994,0.0004656343089040902,-0.0002327087972519884,0.0006982888897237719,0.000232600540867922,0.0004650929008754019
631,-0.0004656343089040902,0,-0.0002329256126086258,0.0009319195183595087,0.0009310518529651257,0.0002325464504376286,0.000464984770317557,-0.000232384329984403,0,0,-0.0004648766900270878,-0.0004650929008754019,0,-0.001163273282333969,0.0009317024504347928,0.0006981263917562546,0.0004650929008754019,0.001162191725067647,-0.0004643370413599769,-0.0002322763752047566,-0.000232330340054139,0.0002323843299845475,-0.000232330340054139,0,-0.0009295373199379011,-0.0004652010817356993,-0.0002327087972519884,-0.0006982888897239166,0.0002329256126087707,-0.0004657427418039437,-0.0004659597591797543,0.0009323539577851485,0.0002328713709018994,0.0004656343089040902,-0.0002327087972519884,0.0006982888897237719,0.000232600540867922,0.0004650929008754019,-0.0002324383450136162,0.0006974771554764077
632,0,-0.0002329256126086258,0.0009319195183595087,0.0009310518529651257,0.0002325464504376286,0.000464984770317557,-0.000232384329984403,0,0,-0.0004648766900270878,-0.0004650929008754019,0,-0.001163273282333969,0.0009317024504347928,0.0006981263917562546,0.0004650929008754019,0.001162191725067647,-0.0004643370413599769,-0.0002322763752047566,-0.000232330340054139,0.0002323843299845475,-0.000232330340054139,0,-0.0009295373199379011,-0.0004652010817356993,-0.0002327087972519884,-0.0006982888897239166,0.0002329256126087707,-0.0004657427418039437,-0.0004659597591797543,0.0009323539577851485,0.0002328713709018994,0.0004656343089040902,-0.0002327087972519884,0.0006982888897237719,0.000232600540867922,0.0004650929008754019,-0.0002324383450136162,0.0006974771554764077,0
633,-0.0002329256126086258,0.0009319195183595087,0.0009310518529651257,0.0002325464504376286,0.000464984770317557,-0.000232384329984403,0,0,-0.0004648766900270878,-0.0004650929008754019,0,-0.001163273282333969,0.0009317024504347928,0.0006981263917562546,0.0004650929008754019,0.001162191725067647,-0.0004643370413599769,-0.0002322763752047566,-0.000232330340054139,0.0002323843299845475,-0.000232330340054139,0,-0.0009295373199379011,-0.0004652010817356993,-0.0002327087972519884,-0.0006982888897239166,0.0002329256126087707,-0.0004657427418039437,-0.0004659597591797543,0.0009323539577851485,0.0002328713709018994,0.0004656343089040902,-0.0002327087972519884,0.0006982888897237719,0.000232600540867922,0.0004650929008754019,-0.0002324383450136162,0.0006974771554764077,0,-0.000232330340054139
634,0.0009319195183595087,0.0009310518529651257,0.0002325464504376286,0.000464984770317557,-0.000232384329984403,0,0,-0.0004648766900270878,-0.0004650929008754019,0,-0.001163273282333969,0.0009317024504347928,0.0006981263917562546,0.0004650929008754019,0.001162191725067647,-0.0004643370413599769,-0.0002322763752047566,-0.000232330340054139,0.0002323843299845475,-0.000232330340054139,0,-0.0009295373199379011,-0.0004652010817356993,-0.0002327087972519884,-0.0006982888897239166,0.0002329256126087707,-0.0004657427418039437,-0.0004659597591797543,0.0009323539577851485,0.0002328713709018994,0.0004656343089040902,-0.0002327087972519884,0.0006982888897237719,0.000232600540867922,0.0004650929008754019,-0.0002324383450136162,0.0006974771554764077,0,-0.000232330340054139,-0.0006971529899533535
646,0.0006981263917562546,0.0004650929008754019,0.001162191725067647,-0.0004643370413599769,-0.0002322763752047566,-0.000232330340054139,0.0002323843299845475,-0.000232330340054139,0,-0.0009295373199379011,-0.0004652010817356993,-0.0002327087972519884,-0.0006982888897239166,0.0002329256126087707,-0.0004657427418039437,-0.0004659597591797543,0.0009323539577851485,0.0002328713709018994,0.0004656343089040902,-0.0002327087972519884,0.0006982888897237719,0.000232600540867922,0.0004650929008754019,-0.0002324383450136162,0.0006974771554764077,0,-0.000232330340054139,-0.0006971529899533535,-0.0004650929008754019,0.001163273282333824,-0.000232384329984403,-0.0009297533800541757,-0.0004653093129335585,0.0009310518529651257,0.001162732252188432,-0.0006968291256144143,-0.0004648766900270878,0.0002325464504376286,-0.00116246192579382,0
648,0.001162191725067647,-0.0004643370413599769,-0.0002322763752047566,-0.000232330340054139,0.0002323843299845475,-0.000232330340054139,0,-0.0009295373199379011,-0.0004652010817356993,-0.0002327087972519884,-0.0006982888897239166,0.0002329256126087707,-0.0004657427418039437,-0.0004659597591797543,0.0009323539577851485,0.0002328713709018994,0.0004656343089040902,-0.0002327087972519884,0.0006982888897237719,0.000232600540867922,0.0004650929008754019,-0.0002324383450136162,0.0006974771554764077,0,-0.000232330340054139,-0.0006971529899533535,-0.0004650929008754019,0.001163273282333824,-0.000232384329984403,-0.0009297533800541757,-0.0004653093129335585,0.0009310518529651257,0.001162732252188432,-0.0006968291256144143,-0.0004648766900270878,0.0002325464504376286,-0.00116246192579382,0,-0.0006982888897239166,0.0004658512252173964
649,-0.0004643370413599769,-0.0002322763752047566,-0.000232330340054139,0.0002323843299845475,-0.000232330340054139,0,-0.0009295373199379011,-0.0004652010817356993,-0.0002327087972519884,-0.0006982888897239166,0.0002329256126087707,-0.0004657427418039437,-0.0004659597591797543,0.0009323539577851485,0.0002328713709018994,0.0004656343089040902,-0.0002327087972519884,0.0006982888897237719,0.000232600540867922,0.0004650929008754019,-0.0002324383450136162,0.0006974771554764077,0,-0.000232330340054139,-0.0006971529899533535,-0.0004650929008754019,0.001163273282333824,-0.000232384329984403,-0.0009297533800541757,-0.0004653093129335585,0.0009310518529651257,0.001162732252188432,-0.0006968291256144143,-0.0004648766900270878,0.0002325464504376286,-0.00116246192579382,0,-0.0006982888897239166,0.0004658512252173964,0
650,-0.0002322763752047566,-0.000232330340054139,0.0002323843299845475,-0.000232330340054139,0,-0.0009295373199379011,-0.0004652010817356993,-0.0002327087972519884,-0.0006982888897239166,0.0002329256126087707,-0.0004657427418039437,-0.0004659597591797543,0.0009323539577851485,0.0002328713709018994,0.0004656343089040902,-0.0002327087972519884,0.0006982888897237719,0.000232600540867922,0.0004650929008754019,-0.0002324383450136162,0.0006974771554764077,0,-0.000232330340054139,-0.0006971529899533535,-0.0004650929008754019,0.001163273282333824,-0.000232384329984403,-0.0009297533800541757,-0.0004653093129335585,0.0009310518529651257,0.001162732252188432,-0.0006968291256144143,-0.0004648766900270878,0.0002325464504376286,-0.00116246192579382,0,-0.0006982888897239166,0.0004658512252173964,0,0.0004656343089040902
720,-0.0002336331358903539,-0.0002336877330883998,-0.0002337423558096557,-0.001168985020360407,0,0,0.000234070629131184,0.0004680317057866868,0.000701719131877827,0.000701546824413433,0.0002335784895620521,-0.0004673673449829706,-0.001401798815342559,-0.0002339611022865207,0.0009360634115733736,0.0004675940081443375,-0.0004673754661767995,0.0007013910122163608,0.0004675858793539557,0.0002335239433919328,0.0009338776907670279,-0.0009330063769262731,0.0009338776907670279,0.0006997547826947774,0.001165442447231363,-0.0006984514633560629,0,-0.0004659597591797543,0,0.0002330884894462146,-0.0006991025155894621,0.00093278880245102,-0.0004659597591797543,0.0002330884894462146,0.001165170859315964,-0.0006982888897239166,-0.0004658512252173964,0.0006991025155896071,0,-0.0002328713709020443
737,0.0007013910122163608,0.0004675858793539557,0.0002335239433919328,0.0009338776907670279,-0.0009330063769262731,0.0009338776907670279,0.0006997547826947774,0.001165442447231363,-0.0006984514633560629,0,-0.0004659597591797543,0,0.0002330884894462146,-0.0006991025155894621,0.00093278880245102,-0.0004659597591797543,0.0002330884894462146,0.001165170859315964,-0.0006982888897239166,-0.0004658512252173964,0.0006991025155896071,0,-0.0002328713709020443,0.0006987768378261671,-0.001396577779447688,0,-0.0002330884894463596,0.000233142832356979,0.0004661769788925743,0,0,-0.0002329798795899496,-0.0004660683437263564,0.000233142832356979,0,-0.0002330884894463596,0.000233142832356979,0.0004661769788925743,0.0004659597591797543,-0.0004657427418039437
740,0.0009338776907670279,-0.0009330063769262731,0.0009338776907670279,0.0006997547826947774,0.001165442447231363,-0.0006984514633560629,0,-0.0004659597591797543,0,0.0002330884894462146,-0.0006991025155894621,0.00093278880245102,-0.0004659597591797543,0.0002330884894462146,0.001165170859315964,-0.0006982888897239166,-0.0004658512252173964,0.0006991025155896071,0,-0.0002328713709020443,0.0006987768378261671,-0.001396577779447688,0,-0.0002330884894463596,0.000233142832356979,0.0004661769788925743,0,0,-0.0002329798795899496,-0.0004660683437263564,0.000233142832356979,0,-0.0002330884894463596,0.000233142832356979,0.0004661769788925743,0.0004659597591797543,-0.0004657427418039437,0.0009319195183595087,-0.0004655259264825629,0.0004657427418039437
743,0.0006997547826947774,0.001165442447231363,-0.0006984514633560629,0,-0.0004659597591797543,0,0.0002330884894462146,-0.0006991025155894621,0.00093278880245102,-0.0004659597591797543,0.0002330884894462146,0.001165170859315964,-0.0006982888897239166,-0.0004658512252173964,0.0006991025155896071,0,-0.0002328713709020443,0.0006987768378261671,-0.001396577779447688,0,-0.0002330884894463596,0.000233142832356979,0.0004661769788925743,0,0,-0.0002329798795899496,-0.0004660683437263564,0.000233142832356979,0,-0.0002330884894463596,0.000233142832356979,0.0004661769788925743,0.0004659597591797543,-0.0004657427418039437,0.0009319195183595087,-0.0004655259264825629,0.0004657427418039437,0,0.001163814816206335,-0.0009299695406351139
746,0,-0.0004659597591797543,0,0.0002330884894462146,-0.0006991025155894621,0.00093278880245102,-0.0004659597591797543,0.0002330884894462146,0.001165170859315964,-0.0006982888897239166,-0.0004658512252173964,0.0006991025155896071,0,-0.0002328713709020443,0.0006987768378261671,-0.001396577779447688,0,-0.0002330884894463596,0.000233142832356979,0.0004661769788925743,0,0,-0.0002329798795899496,-0.0004660683437263564,0.000233142832356979,0,-0.0002330884894463596,0.000233142832356979,0.0004661769788925743,0.0004659597591797543,-0.0004657427418039437,0.0009319195183595087,-0.0004655259264825629,0.0004657427418039437,0,0.001163814816206335,-0.0009299695406351139,0.0002327087972521331,0,-0.0002326546564668516
757,0.0006991025155896071,0,-0.0002328713709020443,0.0006987768378261671,-0.001396577779447688,0,-0.0002330884894463596,0.000233142832356979,0.0004661769788925743,0,0,-0.0002329798795899496,-0.0004660683437263564,0.000233142832356979,0,-0.0002330884894463596,0.000233142832356979,0.0004661769788925743,0.0004659597591797543,-0.0004657427418039437,0.0009319195183595087,-0.0004655259264825629,0.0004657427418039437,0,0.001163814816206335,-0.0009299695406351139,0.0002327087972521331,0,-0.0002326546564668516,0.001396252783512365,0.0002323843299845475,0.0009296391855787782,-0.001393004873770552,-0.0004648766900270878,-0.0004650929008754019,0.0004653093129335585,-0.0002325464504377733,0.0006978016226036214,0.0002324383450134716,0.0002323843299845475
763,-0.0002330884894463596,0.000233142832356979,0.0004661769788925743,0,0,-0.0002329798795899496,-0.0004660683437263564,0.000233142832356979,0,-0.0002330884894463596,0.000233142832356979,0.0004661769788925743,0.0004659597591797543,-0.0004657427418039437,0.0009319195183595087,-0.0004655259264825629,0.0004657427418039437,0,0.001163814816206335,-0.0009299695406351139,0.0002327087972521331,0,-0.0002326546564668516,0.001396252783512365,0.0002323843299845475,0.0009296391855787782,-0.001393004873770552,-0.0004648766900270878,-0.0004650929008754019,0.0004653093129335585,-0.0002325464504377733,0.0006978016226036214,0.0002324383450134716,0.0002323843299845475,-0.000232330340054139,-0.000232384329984403,-0.0002324383450136162,0.001394954310952671,0.0004646546453554998,-0.0006964995342913197
767,0,-0.0002329798795899496,-0.0004660683437263564,0.000233142832356979,0,-0.0002330884894463596,0.000233142832356979,0.0004661769788925743,0.0004659597591797543,-0.0004657427418039437,0.0009319195183595087,-0.0004655259264825629,0.0004657427418039437,0,0.001163814816206335,-0.0009299695406351139,0.0002327087972521331,0,-0.0002326546564668516,0.001396252783512365,0.0002323843299845475,0.0009296391855787782,-0.001393004873770552,-0.0004648766900270878,-0.0004650929008754019,0.0004653093129335585,-0.0002325464504377733,0.0006978016226036214,0.0002324383450134716,0.0002323843299845475,-0.000232330340054139,-0.000232384329984403,-0.0002324383450136162,0.001394954310952671,0.0004646546453554998,-0.0006964995342913197,0,0.0004647625485887287,-0.00023243208744018,0
808,0,0.0004641213852023338,0,0,0,-0.0002319530382358312,0.0002320068529302599,0.000927812152943036,0.0009269521155050742,-0.002546757595298386,-0.0006966612019723578,0.001161699627563405,-0.001624365353347052,0.0004647686599689505,0.0002322763752049011,0.0006969849840080893,0.0006961820778035729,-0.0004637984970011537,0.0004640137058605198,-0.0002318992485005768,0.0002319530382358312,0.0004637984970010094,0,0.0004635834876761907,-0.0002316843388043446,0.0006952140866288778,-0.0006947310997818902,-0.0002317380288761965,-0.0002317917438381675,0.000231845483707137,0,0.0002317917438380233,0,-0.0002317380288761965,0.0002317917438380233,-0.0004634760577525371,0.000231845483707137,0.000695375231514214,0.0002316306736048837,-0.0002315770332606781
820,-0.001624365353347052,0.0004647686599689505,0.0002322763752049011,0.0006969849840080893,0.0006961820778035729,-0.0004637984970011537,0.0004640137058605198,-0.0002318992485005768,0.0002319530382358312,0.0004637984970010094,0,0.0004635834876761907,-0.0002316843388043446,0.0006952140866288778,-0.0006947310997818902,-0.0002317380288761965,-0.0002317917438381675,0.000231845483707137,0,0.0002317917438380233,0,-0.0002317380288761965,0.0002317917438380233,-0.0004634760577525371,0.000231845483707137,0.000695375231514214,0.0002316306736048837,-0.0002315770332606781,0.0002316306736048837,0,-0.0004631540665212121,0,0,0.000463368677608545,0.000231577033260534,0.001157617088772033,-0.0006937671365703262,0.0006942487835609648,0.0002312557121900128,-0.0002312022453501045
821,0.0004647686599689505,0.0002322763752049011,0.0006969849840080893,0.0006961820778035729,-0.0004637984970011537,0.0004640137058605198,-0.0002318992485005768,0.0002319530382358312,0.0004637984970010094,0,0.0004635834876761907,-0.0002316843388043446,0.0006952140866288778,-0.0006947310997818902,-0.0002317380288761965,-0.0002317917438381675,0.000231845483707137,0,0.0002317917438380233,0,-0.0002317380288761965,0.0002317917438380233,-0.0004634760577525371,0.000231845483707137,0.000695375231514214,0.0002316306736048837,-0.0002315770332606781,0.0002316306736048837,0,-0.0004631540665212121,0,0,0.000463368677608545,0.000231577033260534,0.001157617088772033,-0.0006937671365703262,0.0006942487835609648,0.0002312557121900128,-0.0002312022453501045,-0.0002312557121901567
822,0.0002322763752049011,0.0006969849840080893,0.0006961820778035729,-0.0004637984970011537,0.0004640137058605198,-0.0002318992485005768,0.0002319530382358312,0.0004637984970010094,0,0.0004635834876761907,-0.0002316843388043446,0.0006952140866288778,-0.0006947310997818902,-0.0002317380288761965,-0.0002317917438381675,0.000231845483707137,0,0.0002317917438380233,0,-0.0002317380288761965,0.0002317917438380233,-0.0004634760577525371,0.000231845483707137,0.000695375231514214,0.0002316306736048837,-0.0002315770332606781,0.0002316306736048837,0,-0.0004631540665212121,0,0,0.000463368677608545,0.000231577033260534,0.001157617088772033,-0.0006937671365703262,0.0006942487835609648,0.0002312557121900128,-0.0002312022453501045,-0.0002312557121901567,0.001387855222588425
823,0.0006969849840080893,0.0006961820778035729,-0.0004637984970011537,0.0004640137058605198,-0.0002318992485005768,0.0002319530382358312,0.0004637984970010094,0,0.0004635834876761907,-0.0002316843388043446,0.0006952140866288778,-0.0006947310997818902,-0.0002317380288761965,-0.0002317917438381675,0.000231845483707137,0,0.0002317917438380233,0,-0.0002317380288761965,0.0002317917438380233,-0.0004634760577525371,0.000231845483707137,0.000695375231514214,0.0002316306736048837,-0.0002315770332606781,0.0002316306736048837,0,-0.0004631540665212121,0,0,0.000463368677608545,0.000231577033260534,0.001157617088772033,-0.0006937671365703262,0.0006942487835609648,0.0002312557121900128,-0.0002312022453501045,-0.0002312557121901567,0.001387855222588425,0.0009239544999807178
824,0.0006961820778035729,-0.0004637984970011537,0.0004640137058605198,-0.0002318992485005768,0.0002319530382358312,0.0004637984970010094,0,0.0004635834876761907,-0.0002316843388043446,0.0006952140866288778,-0.0006947310997818902,-0.0002317380288761965,-0.0002317917438381675,0.000231845483707137,0,0.0002317917438380233,0,-0.0002317380288761965,0.0002317917438380233,-0.0004634760577525371,0.000231845483707137,0.000695375231514214,0.0002316306736048837,-0.0002315770332606781,0.0002316306736048837,0,-0.0004631540665212121,0,0,0.000463368677608545,0.000231577033260534,0.001157617088772033,-0.0006937671365703262,0.0006942487835609648,0.0002312557121900128,-0.0002312022453501045,-0.0002312557121901567,0.001387855222588425,0.0009239544999807178,-0.0006923261970802197
825,-0.0004637984970011537,0.0004640137058605198,-0.0002318992485005768,0.0002319530382358312,0.0004637984970010094,0,0.0004635834876761907,-0.0002316843388043446,0.0006952140866288778,-0.0006947310997818902,-0.0002317380288761965,-0.0002317917438381675,0.000231845483707137,0,0.0002317917438380233,0,-0.0002317380288761965,0.0002317917438380233,-0.0004634760577525371,0.000231845483707137,0.000695375231514214,0.0002316306736048837,-0.0002315770332606781,0.0002316306736048837,0,-0.0004631540665212121,0,0,0.000463368677608545,0.000231577033260534,0.001157617088772033,-0.0006937671365703262,0.0006942487835609648,0.0002312557121900128,-0.0002312022453501045,-0.0002312557121901567,0.001387855222588425,0.0009239544999807178,-0.0006923261970802197,-0.0006928058447161505
828,0.0002319530382358312,0.0004637984970010094,0,0.0004635834876761907,-0.0002316843388043446,0.0006952140866288778,-0.0006947310997818902,-0.0002317380288761965,-0.0002317917438381675,0.000231845483707137,0,0.0002317917438380233,0,-0.0002317380288761965,0.0002317917438380233,-0.0004634760577525371,0.000231845483707137,0.000695375231514214,0.0002316306736048837,-0.0002315770332606781,0.0002316306736048837,0,-0.0004631540665212121,0,0,0.000463368677608545,0.000231577033260534,0.001157617088772033,-0.0006937671365703262,0.0006942487835609648,0.0002312557121900128,-0.0002312022453501045,-0.0002312557121901567,0.001387855222588425,0.0009239544999807178,-0.0006923261970802197,-0.0006928058447161505,0.0002310953858060714,-0.0004620839861349485,0.0002311488032277882
829,0.0004637984970010094,0,0.0004635834876761907,-0.0002316843388043446,0.0006952140866288778,-0.0006947310997818902,-0.0002317380288761965,-0.0002317917438381675,0.000231845483707137,0,0.0002317917438380233,0,-0.0002317380288761965,0.0002317917438380233,-0.0004634760577525371,0.000231845483707137,0.000695375231514214,0.0002316306736048837,-0.0002315770332606781,0.0002316306736048837,0,-0.0004631540665212121,0,0,0.000463368677608545,0.000231577033260534,0.001157617088772033,-0.0006937671365703262,0.0006942487835609648,0.0002312557121900128,-0.0002312022453501045,-0.0002312557121901567,0.001387855222588425,0.0009239544999807178,-0.0006923261970802197,-0.0006928058447161505,0.0002310953858060714,-0.0004620839861349485,0.0002311488032277882,-0.0004621907716119991
830,0,0.0004635834876761907,-0.0002316843388043446,0.0006952140866288778,-0.0006947310997818902,-0.0002317380288761965,-0.0002317917438381675,0.000231845483707137,0,0.0002317917438380233,0,-0.0002317380288761965,0.0002317917438380233,-0.0004634760577525371,0.000231845483707137,0.000695375231514214,0.0002316306736048837,-0.0002315770332606781,0.0002316306736048837,0,-0.0004631540665212121,0,0,0.000463368677608545,0.000231577033260534,0.001157617088772033,-0.0006937671365703262,0.0006942487835609648,0.0002312557121900128,-0.0002312022453501045,-0.0002312557121901567,0.001387855222588425,0.0009239544999807178,-0.0006923261970802197,-0.0006928058447161505,0.0002310953858060714,-0.0004620839861349485,0.0002311488032277882,-0.0004621907716119991,0.0002312022453502483
831,0.0004635834876761907,-0.0002316843388043446,0.0006952140866288778,-0.0006947310997818902,-0.0002317380288761965,-0.0002317917438381675,0.000231845483707137,0,0.0002317917438380233,0,-0.0002317380288761965,0.0002317917438380233,-0.0004634760577525371,0.000231845483707137,0.000695375231514214,0.0002316306736048837,-0.0002315770332606781,0.0002316306736048837,0,-0.0004631540665212121,0,0,0.000463368677608545,0.000231577033260534,0.001157617088772033,-0.0006937671365703262,0.0006942487835609648,0.0002312557121900128,-0.0002312022453501045,-0.0002312557121901567,0.001387855222588425,0.0009239544999807178,-0.0006923261970802197,-0.0006928058447161505,0.0002310953858060714,-0.0004620839861349485,0.0002311488032277882,-0.0004621907716119991,0.0002312022453502483,0.0004622976064557201
832,-0.0002316843388043446,0.0006952140866288778,-0.0006947310997818902,-0.0002317380288761965,-0.0002317917438381675,0.000231845483707137,0,0.0002317917438380233,0,-0.0002317380288761965,0.0002317917438380233,-0.0004634760577525371,0.000231845483707137,0.000695375231514214,0.0002316306736048837,-0.0002315770332606781,0.0002316306736048837,0,-0.0004631540665212121,0,0,0.000463368677608545,0.000231577033260534,0.001157617088772033,-0.0006937671365703262,0.0006942487835609648,0.0002312557121900128,-0.0002312022453501045,-0.0002312557121901567,0.001387855222588425,0.0009239544999807178,-0.0006923261970802197,-0.0006928058447161505,0.0002310953858060714,-0.0004620839861349485,0.0002311488032277882,-0.0004621907716119991,0.0002312022453502483,0.0004622976064557201,-0.0002310419930675461
835,-0.0002317380288761965,-0.0002317917438381675,0.000231845483707137,0,0.0002317917438380233,0,-0.0002317380288761965,0.0002317917438380233,-0.0004634760577525371,0.000231845483707137,0.000695375231514214,0.0002316306736048837,-0.0002315770332606781,0.0002316306736048837,0,-0.0004631540665212121,0,0,0.000463368677608545,0.000231577033260534,0.001157617088772033,-0.0006937671365703262,0.0006942487835609648,0.0002312557121900128,-0.0002312022453501045,-0.0002312557121901567,0.001387855222588425,0.0009239544999807178,-0.0006923261970802197,-0.0006928058447161505,0.0002310953858060714,-0.0004620839861349485,0.0002311488032277882,-0.0004621907716119991,0.0002312022453502483,0.0004622976064557201,-0.0002310419930675461,0.0002310953858060714,0,0.0004620839861349485
836,-0.0002317917438381675,0.000231845483707137,0,0.0002317917438380233,0,-0.0002317380288761965,0.0002317917438380233,-0.0004634760577525371,0.000231845483707137,0.000695375231514214,0.0002316306736048837,-0.0002315770332606781,0.0002316306736048837,0,-0.0004631540665212121,0,0,0.000463368677608545,0.000231577033260534,0.001157617088772033,-0.0006937671365703262,0.0006942487835609648,0.0002312557121900128,-0.0002312022453501045,-0.0002312557121901567,0.001387855222588425,0.0009239544999807178,-0.0006923261970802197,-0.0006928058447161505,0.0002310953858060714,-0.0004620839861349485,0.0002311488032277882,-0.0004621907716119991,0.0002312022453502483,0.0004622976064557201,-0.0002310419930675461,0.0002310953858060714,0,0.0004620839861349485,-0.0002309352815720981
837,0.000231845483707137,0,0.0002317917438380233,0,-0.0002317380288761965,0.0002317917438380233,-0.0004634760577525371,0.000231845483707137,0.000695375231514214,0.0002316306736048837,-0.0002315770332606781,0.0002316306736048837,0,-0.0004631540665212121,0,0,0.000463368677608545,0.000231577033260534,0.001157617088772033,-0.0006937671365703262,0.0006942487835609648,0.0002312557121900128,-0.0002312022453501045,-0.0002312557121901567,0.001387855222588425,0.0009239544999807178,-0.0006923261970802197,-0.0006928058447161505,0.0002310953858060714,-0.0004620839861349485,0.0002311488032277882,-0.0004621907716119991,0.0002312022453502483,0.0004622976064557201,-0.0002310419930675461,0.0002310953858060714,0,0.0004620839861349485,-0.0002309352815720981,0.0006929658749856101
838,0,0.0002317917438380233,0,-0.0002317380288761965,0.0002317917438380233,-0.0004634760577525371,0.000231845483707137,0.000695375231514214,0.0002316306736048837,-0.0002315770332606781,0.0002316306736048837,0,-0.0004631540665212121,0,0,0.000463368677608545,0.000231577033260534,0.001157617088772033,-0.0006937671365703262,0.0006942487835609648,0.0002312557121900128,-0.0002312022453501045,-0.0002312557121901567,0.001387855222588425,0.0009239544999807178,-0.0006923261970802197,-0.0006928058447161505,0.0002310953858060714,-0.0004620839861349485,0.0002311488032277882,-0.0004621907716119991,0.0002312022453502483,0.0004622976064557201,-0.0002310419930675461,0.0002310953858060714,0,0.0004620839861349485,-0.0002309352815720981,0.0006929658749856101,0
839,0.0002317917438380233,0,-0.0002317380288761965,0.0002317917438380233,-0.0004634760577525371,0.000231845483707137,0.000695375231514214,0.0002316306736048837,-0.0002315770332606781,0.0002316306736048837,0,-0.0004631540665212121,0,0,0.000463368677608545,0.000231577033260534,0.001157617088772033,-0.0006937671365703262,0.0006942487835609648,0.0002312557121900128,-0.0002312022453501045,-0.0002312557121901567,0.001387855222588425,0.0009239544999807178,-0.0006923261970802197,-0.0006928058447161505,0.0002310953858060714,-0.0004620839861349485,0.0002311488032277882,-0.0004621907716119991,0.0002312022453502483,0.0004622976064557201,-0.0002310419930675461,0.0002310953858060714,0,0.0004620839861349485,-0.0002309352815720981,0.0006929658749856101,0,0.0004616573372097358
840,0,-0.0002317380288761965,0.0002317917438380233,-0.0004634760577525371,0.000231845483707137,0.000695375231514214,0.0002316306736048837,-0.0002315770332606781,0.0002316306736048837,0,-0.0004631540665212121,0,0,0.000463368677608545,0.000231577033260534,0.001157617088772033,-0.0006937671365703262,0.0006942487835609648,0.0002312557121900128,-0.0002312022453501045,-0.0002312557121901567,0.001387855222588425,0.0009239544999807178,-0.0006923261970802197,-0.0006928058447161505,0.0002310953858060714,-0.0004620839861349485,0.0002311488032277882,-0.0004621907716119991,0.0002312022453502483,0.0004622976064557201,-0.0002310419930675461,0.0002310953858060714,0,0.0004620839861349485,-0.0002309352815720981,0.0006929658749856101,0,0.0004616573372097358,-0.0002307221540296751
841,-0.0002317380288761965,0.0002317917438380233,-0.0004634760577525371,0.000231845483707137,0.000695375231514214,0.0002316306736048837,-0.0002315770332606781,0.0002316306736048837,0,-0.0004631540665212121,0,0,0.000463368677608545,0.000231577033260534,0.001157617088772033,-0.0006937671365703262,0.0006942487835609648,0.0002312557121900128,-0.0002312022453501045,-0.0002312557121901567,0.001387855222588425,0.0009239544999807178,-0.0006923261970802197,-0.0006928058447161505,0.0002310953858060714,-0.0004620839861349485,0.0002311488032277882,-0.0004621907716119991,0.0002312022453502483,0.0004622976064557201,-0.0002310419930675461,0.0002310953858060714,0,0.0004620839861349485,-0.0002309352815720981,0.0006929658749856101,0,0.0004616573372097358,-0.0002307221540296751,-0.0004615507980535276
843,-0.0004634760577525371,0.000231845483707137,0.000695375231514214,0.0002316306736048837,-0.0002315770332606781,0.0002316306736048837,0,-0.0004631540665212121,0,0,0.000463368677608545,0.000231577033260534,0.001157617088772033,-0.0006937671365703262,0.0006942487835609648,0.0002312557121900128,-0.0002312022453501045,-0.0002312557121901567,0.001387855222588425,0.0009239544999807178,-0.0006923261970802197,-0.0006928058447161505,0.0002310953858060714,-0.0004620839861349485,0.0002311488032277882,-0.0004621907716119991,0.0002312022453502483,0.0004622976064557201,-0.0002310419930675461,0.0002310953858060714,0,0.0004620839861349485,-0.0002309352815720981,0.0006929658749856101,0,0.0004616573372097358,-0.0002307221540296751,-0.0004615507980535276,-0.0002308819627808697,0
844,0.000231845483707137,0.000695375231514214,0.0002316306736048837,-0.0002315770332606781,0.0002316306736048837,0,-0.0004631540665212121,0,0,0.000463368677608545,0.000231577033260534,0.001157617088772033,-0.0006937671365703262,0.0006942487835609648,0.0002312557121900128,-0.0002312022453501045,-0.0002312557121901567,0.001387855222588425,0.0009239544999807178,-0.0006923261970802197,-0.0006928058447161505,0.0002310953858060714,-0.0004620839861349485,0.0002311488032277882,-0.0004621907716119991,0.0002312022453502483,0.0004622976064557201,-0.0002310419930675461,0.0002310953858060714,0,0.0004620839861349485,-0.0002309352815720981,0.0006929658749856101,0,0.0004616573372097358,-0.0002307221540296751,-0.0004615507980535276,-0.0002308819627808697,0,0.0009237411262881049
845,0.000695375231514214,0.0002316306736048837,-0.0002315770332606781,0.0002316306736048837,0,-0.0004631540665212121,0,0,0.000463368677608545,0.000231577033260534,0.001157617088772033,-0.0006937671365703262,0.0006942487835609648,0.0002312557121900128,-0.0002312022453501045,-0.0002312557121901567,0.001387855222588425,0.0009239544999807178,-0.0006923261970802197,-0.0006928058447161505,0.0002310953858060714,-0.0004620839861349485,0.0002311488032277882,-0.0004621907716119991,0.0002312022453502483,0.0004622976064557201,-0.0002310419930675461,0.0002310953858060714,0,0.0004620839861349485,-0.0002309352815720981,0.0006929658749856101,0,0.0004616573372097358,-0.0002307221540296751,-0.0004615507980535276,-0.0002308819627808697,0,0.0009237411262881049,-0.0004614443080592066
846,0.0002316306736048837,-0.0002315770332606781,0.0002316306736048837,0,-0.0004631540665212121,0,0,0.000463368677608545,0.000231577033260534,0.001157617088772033,-0.0006937671365703262,0.0006942487835609648,0.0002312557121900128,-0.0002312022453501045,-0.0002312557121901567,0.001387855222588425,0.0009239544999807178,-0.0006923261970802197,-0.0006928058447161505,0.0002310953858060714,-0.0004620839861349485,0.0002311488032277882,-0.0004621907716119991,0.0002312022453502483,0.0004622976064557201,-0.0002310419930675461,0.0002310953858060714,0,0.0004620839861349485,-0.0002309352815720981,0.0006929658749856101,0,0.0004616573372097358,-0.0002307221540296751,-0.0004615507980535276,-0.0002308819627808697,0,0.0009237411262881049,-0.0004614443080592066,-0.0002308286686049397
847,-0.0002315770332606781,0.0002316306736048837,0,-0.0004631540665212121,0,0,0.000463368677608545,0.000231577033260534,0.001157617088772033,-0.0006937671365703262,0.0006942487835609648,0.0002312557121900128,-0.0002312022453501045,-0.0002312557121901567,0.001387855222588425,0.0009239544999807178,-0.0006923261970802197,-0.0006928058447161505,0.0002310953858060714,-0.0004620839861349485,0.0002311488032277882,-0.0004621907716119991,0.0002312022453502483,0.0004622976064557201,-0.0002310419930675461,0.0002310953858060714,0,0.0004620839861349485,-0.0002309352815720981,0.0006929658749856101,0,0.0004616573372097358,-0.0002307221540296751,-0.0004615507980535276,-0.0002308819627808697,0,0.0009237411262881049,-0.0004614443080592066,-0.0002308286686049397,0.0002308819627810133
848,0.0002316306736048837,0,-0.0004631540665212121,0,0,0.000463368677608545,0.000231577033260534,0.001157617088772033,-0.0006937671365703262,0.0006942487835609648,0.0002312557121900128,-0.0002312022453501045,-0.0002312557121901567,0.001387855222588425,0.0009239544999807178,-0.0006923261970802197,-0.0006928058447161505,0.0002310953858060714,-0.0004620839861349485,0.0002311488032277882,-0.0004621907716119991,0.0002312022453502483,0.0004622976064557201,-0.0002310419930675461,0.0002310953858060714,0,0.0004620839861349485,-0.0002309352815720981,0.0006929658749856101,0,0.0004616573372097358,-0.0002307221540296751,-0.0004615507980535276,-0.0002308819627808697,0,0.0009237411262881049,-0.0004614443080592066,-0.0002308286686049397,0.0002308819627810133,0.0002308286686047961
852,0,0.000463368677608545,0.000231577033260534,0.001157617088772033,-0.0006937671365703262,0.0006942487835609648,0.0002312557121900128,-0.0002312022453501045,-0.0002312557121901567,0.001387855222588425,0.0009239544999807178,-0.0006923261970802197,-0.0006928058447161505,0.0002310953858060714,-0.0004620839861349485,0.0002311488032277882,-0.0004621907716119991,0.0002312022453502483,0.0004622976064557201,-0.0002310419930675461,0.0002310953858060714,0,0.0004620839861349485,-0.0002309352815720981,0.0006929658749856101,0,0.0004616573372097358,-0.0002307221540296751,-0.0004615507980535276,-0.0002308819627808697,0,0.0009237411262881049,-0.0004614443080592066,-0.0002308286686049397,0.0002308819627810133,0.0002308286686047961,-0.000230775399026692,-0.0002308286686049397,0.0002308819627810133,0.001385287782721611
853,0.000463368677608545,0.000231577033260534,0.001157617088772033,-0.0006937671365703262,0.0006942487835609648,0.0002312557121900128,-0.0002312022453501045,-0.0002312557121901567,0.001387855222588425,0.0009239544999807178,-0.0006923261970802197,-0.0006928058447161505,0.0002310953858060714,-0.0004620839861349485,0.0002311488032277882,-0.0004621907716119991,0.0002312022453502483,0.0004622976064557201,-0.0002310419930675461,0.0002310953858060714,0,0.0004620839861349485,-0.0002309352815720981,0.0006929658749856101,0,0.0004616573372097358,-0.0002307221540296751,-0.0004615507980535276,-0.0002308819627808697,0,0.0009237411262881049,-0.0004614443080592066,-0.0002308286686049397,0.0002308819627810133,0.0002308286686047961,-0.000230775399026692,-0.0002308286686049397,0.0002308819627810133,0.001385287782721611,-0.0002305093468228393
854,0.000231577033260534,0.001157617088772033,-0.0006937671365703262,0.0006942487835609648,0.0002312557121900128,-0.0002312022453501045,-0.0002312557121901567,0.001387855222588425,0.0009239544999807178,-0.0006923261970802197,-0.0006928058447161505,0.0002310953858060714,-0.0004620839861349485,0.0002311488032277882,-0.0004621907716119991,0.0002312022453502483,0.0004622976064557201,-0.0002310419930675461,0.0002310953858060714,0,0.0004620839861349485,-0.0002309352815720981,0.0006929658749856101,0,0.0004616573372097358,-0.0002307221540296751,-0.0004615507980535276,-0.0002308819627808697,0,0.0009237411262881049,-0.0004614443080592066,-0.0002308286686049397,0.0002308819627810133,0.0002308286686047961,-0.000230775399026692,-0.0002308286686049397,0.0002308819627810133,0.001385287782721611,-0.0002305093468228393,0.0006916874808980886
856,-0.0006937671365703262,0.0006942487835609648,0.0002312557121900128,-0.0002312022453501045,-0.0002312557121901567,0.001387855222588425,0.0009239544999807178,-0.0006923261970802197,-0.0006928058447161505,0.0002310953858060714,-0.0004620839861349485,0.0002311488032277882,-0.0004621907716119991,0.0002312022453502483,0.0004622976064557201,-0.0002310419930675461,0.0002310953858060714,0,0.0004620839861349485,-0.0002309352815720981,0.0006929658749856101,0,0.0004616573372097358,-0.0002307221540296751,-0.0004615507980535276,-0.0002308819627808697,0,0.0009237411262881049,-0.0004614443080592066,-0.0002308286686049397,0.0002308819627810133,0.0002308286686047961,-0.000230775399026692,-0.0002308286686049397,0.0002308819627810133,0.001385287782721611,-0.0002305093468228393,0.0006916874808980886,0.001382418760046638,-0.0006902551583431347
859,-0.0002312022453501045,-0.0002312557121901567,0.001387855222588425,0.0009239544999807178,-0.0006923261970802197,-0.0006928058447161505,0.0002310953858060714,-0.0004620839861349485,0.0002311488032277882,-0.0004621907716119991,0.0002312022453502483,0.0004622976064557201,-0.0002310419930675461,0.0002310953858060714,0,0.0004620839861349485,-0.0002309352815720981,0.0006929658749856101,0,0.0004616573372097358,-0.0002307221540296751,-0.0004615507980535276,-0.0002308819627808697,0,0.0009237411262881049,-0.0004614443080592066,-0.0002308286686049397,0.0002308819627810133,0.0002308286686047961,-0.000230775399026692,-0.0002308286686049397,0.0002308819627810133,0.001385287782721611,-0.0002305093468228393,0.0006916874808980886,0.001382418760046638,-0.0006902551583431347,0.000460487959751711,0.0009205520163835522,0.0009197053797417522
860,-0.0002312557121901567,0.001387855222588425,0.0009239544999807178,-0.0006923261970802197,-0.0006928058447161505,0.0002310953858060714,-0.0004620839861349485,0.0002311488032277882,-0.0004621907716119991,0.0002312022453502483,0.0004622976064557201,-0.0002310419930675461,0.0002310953858060714,0,0.0004620839861349485,-0.0002309352815720981,0.0006929658749856101,0,0.0004616573372097358,-0.0002307221540296751,-0.0004615507980535276,-0.0002308819627808697,0,0.0009237411262881049,-0.0004614443080592066,-0.0002308286686049397,0.0002308819627810133,0.0002308286686047961,-0.000230775399026692,-0.0002308286686049397,0.0002308819627810133,0.001385287782721611,-0.0002305093468228393,0.0006916874808980886,0.001382418760046638,-0.0006902551583431347,0.000460487959751711,0.0009205520163835522,0.0009197053797417522,0.0002297150747454584
861,0.001387855222588425,0.0009239544999807178,-0.0006923261970802197,-0.0006928058447161505,0.0002310953858060714,-0.0004620839861349485,0.0002311488032277882,-0.0004621907716119991,0.0002312022453502483,0.0004622976064557201,-0.0002310419930675461,0.0002310953858060714,0,0.0004620839861349485,-0.0002309352815720981,0.0006929658749856101,0,0.0004616573372097358,-0.0002307221540296751,-0.0004615507980535276,-0.0002308819627808697,0,0.0009237411262881049,-0.0004614443080592066,-0.0002308286686049397,0.0002308819627810133,0.0002308286686047961,-0.000230775399026692,-0.0002308286686049397,0.0002308819627810133,0.001385287782721611,-0.0002305093468228393,0.0006916874808980886,0.001382418760046638,-0.0006902551583431347,0.000460487959751711,0.0009205520163835522,0.0009197053797417522,0.0002297150747454584,0.0002296623178488046
