total 25G
-rw-rw-r--. 1 marcus marcus    0 Jan  2 19:36 size.txt
-rw-rw-r--. 1 marcus marcus    0 Jan  2 19:35 cut
-rw-rw-r--. 1 marcus marcus  35M Dec 29 18:06 99_level.json
-rw-rw-r--. 1 marcus marcus  38M Dec 29 18:06 98_level.json
-rw-rw-r--. 1 marcus marcus  41M Dec 29 18:06 97_level.json
-rw-rw-r--. 1 marcus marcus  45M Dec 29 18:06 96_level.json
-rw-rw-r--. 1 marcus marcus  49M Dec 29 18:06 95_level.json
-rw-rw-r--. 1 marcus marcus  53M Dec 29 18:06 94_level.json
-rw-rw-r--. 1 marcus marcus  58M Dec 29 18:06 93_level.json
-rw-rw-r--. 1 marcus marcus  63M Dec 29 18:06 92_level.json
-rw-rw-r--. 1 marcus marcus  68M Dec 29 18:06 91_level.json
-rw-rw-r--. 1 marcus marcus  74M Dec 29 18:06 90_level.json
-rw-rw-r--. 1 marcus marcus  81M Dec 29 18:06 89_level.json
-rw-rw-r--. 1 marcus marcus  87M Dec 29 18:06 88_level.json
-rw-rw-r--. 1 marcus marcus  94M Dec 29 18:06 87_level.json
-rw-rw-r--. 1 marcus marcus 101M Dec 29 18:06 86_level.json
-rw-rw-r--. 1 marcus marcus 108M Dec 29 18:06 85_level.json
-rw-rw-r--. 1 marcus marcus 116M Dec 29 18:05 84_level.json
-rw-rw-r--. 1 marcus marcus 125M Dec 29 18:05 83_level.json
-rw-rw-r--. 1 marcus marcus 133M Dec 29 18:05 82_level.json
-rw-rw-r--. 1 marcus marcus 143M Dec 29 18:05 81_level.json
-rw-rw-r--. 1 marcus marcus 152M Dec 29 18:05 80_level.json
-rw-rw-r--. 1 marcus marcus 161M Dec 29 18:05 79_level.json
-rw-rw-r--. 1 marcus marcus 172M Dec 29 18:05 78_level.json
-rw-rw-r--. 1 marcus marcus 183M Dec 29 18:05 77_level.json
-rw-rw-r--. 1 marcus marcus 193M Dec 29 18:05 76_level.json
-rw-rw-r--. 1 marcus marcus 204M Dec 29 18:04 75_level.json
-rw-rw-r--. 1 marcus marcus 215M Dec 29 18:04 74_level.json
-rw-rw-r--. 1 marcus marcus 227M Dec 29 18:04 73_level.json
-rw-rw-r--. 1 marcus marcus 238M Dec 29 18:04 72_level.json
-rw-rw-r--. 1 marcus marcus 249M Dec 29 18:04 71_level.json
-rw-rw-r--. 1 marcus marcus 260M Dec 29 18:04 70_level.json
-rw-rw-r--. 1 marcus marcus 271M Dec 29 18:03 69_level.json
-rw-rw-r--. 1 marcus marcus 282M Dec 29 18:03 68_level.json
-rw-rw-r--. 1 marcus marcus 292M Dec 29 18:03 67_level.json
-rw-rw-r--. 1 marcus marcus 303M Dec 29 18:03 66_level.json
-rw-rw-r--. 1 marcus marcus 314M Dec 29 18:02 65_level.json
-rw-rw-r--. 1 marcus marcus 324M Dec 29 18:02 64_level.json
-rw-rw-r--. 1 marcus marcus 334M Dec 29 18:02 63_level.json
-rw-rw-r--. 1 marcus marcus 344M Dec 29 18:02 62_level.json
-rw-rw-r--. 1 marcus marcus 354M Dec 29 18:01 61_level.json
-rw-rw-r--. 1 marcus marcus 363M Dec 29 18:01 60_level.json
-rw-rw-r--. 1 marcus marcus 373M Dec 29 18:01 59_level.json
-rw-rw-r--. 1 marcus marcus 381M Dec 29 18:01 58_level.json
-rw-rw-r--. 1 marcus marcus 390M Dec 29 18:00 57_level.json
-rw-rw-r--. 1 marcus marcus 397M Dec 29 18:00 56_level.json
-rw-rw-r--. 1 marcus marcus 404M Dec 29 18:00 55_level.json
-rw-rw-r--. 1 marcus marcus 411M Dec 29 17:59 54_level.json
-rw-rw-r--. 1 marcus marcus 418M Dec 29 17:59 53_level.json
-rw-rw-r--. 1 marcus marcus 425M Dec 29 17:59 52_level.json
-rw-rw-r--. 1 marcus marcus 430M Dec 29 17:59 51_level.json
-rw-rw-r--. 1 marcus marcus 435M Dec 29 17:58 50_level.json
-rw-rw-r--. 1 marcus marcus 440M Dec 29 17:58 49_level.json
-rw-rw-r--. 1 marcus marcus 443M Dec 29 17:58 48_level.json
-rw-rw-r--. 1 marcus marcus 446M Dec 29 17:57 47_level.json
-rw-rw-r--. 1 marcus marcus 449M Dec 29 17:57 46_level.json
-rw-rw-r--. 1 marcus marcus 451M Dec 29 17:57 45_level.json
-rw-rw-r--. 1 marcus marcus 452M Dec 29 17:56 44_level.json
-rw-rw-r--. 1 marcus marcus 452M Dec 29 17:56 43_level.json
-rw-rw-r--. 1 marcus marcus 451M Dec 29 17:56 42_level.json
-rw-rw-r--. 1 marcus marcus 450M Dec 29 17:55 41_level.json
-rw-rw-r--. 1 marcus marcus 447M Dec 29 17:55 40_level.json
-rw-rw-r--. 1 marcus marcus 444M Dec 29 17:55 39_level.json
-rw-rw-r--. 1 marcus marcus 439M Dec 29 17:54 38_level.json
-rw-rw-r--. 1 marcus marcus 433M Dec 29 17:54 37_level.json
-rw-rw-r--. 1 marcus marcus 427M Dec 29 17:54 36_level.json
-rw-rw-r--. 1 marcus marcus 420M Dec 29 17:53 35_level.json
-rw-rw-r--. 1 marcus marcus 413M Dec 29 17:53 34_level.json
-rw-rw-r--. 1 marcus marcus 405M Dec 29 17:53 33_level.json
-rw-rw-r--. 1 marcus marcus 397M Dec 29 17:52 32_level.json
-rw-rw-r--. 1 marcus marcus 388M Dec 29 17:52 31_level.json
-rw-rw-r--. 1 marcus marcus 379M Dec 29 17:52 30_level.json
-rw-rw-r--. 1 marcus marcus 369M Dec 29 17:52 29_level.json
-rw-rw-r--. 1 marcus marcus 358M Dec 29 17:51 28_level.json
-rw-rw-r--. 1 marcus marcus 347M Dec 29 17:51 27_level.json
-rw-rw-r--. 1 marcus marcus 335M Dec 29 17:51 26_level.json
-rw-rw-r--. 1 marcus marcus 324M Dec 29 17:51 25_level.json
-rw-rw-r--. 1 marcus marcus 311M Dec 29 17:50 24_level.json
-rw-rw-r--. 1 marcus marcus 298M Dec 29 17:50 23_level.json
-rw-rw-r--. 1 marcus marcus 284M Dec 29 17:50 22_level.json
-rw-rw-r--. 1 marcus marcus 270M Dec 29 17:50 21_level.json
-rw-rw-r--. 1 marcus marcus 255M Dec 29 17:49 20_level.json
-rw-rw-r--. 1 marcus marcus 240M Dec 29 17:49 19_level.json
-rw-rw-r--. 1 marcus marcus 225M Dec 29 17:49 18_level.json
-rw-rw-r--. 1 marcus marcus 209M Dec 29 17:49 17_level.json
-rw-rw-r--. 1 marcus marcus 194M Dec 29 17:49 16_level.json
-rw-rw-r--. 1 marcus marcus 178M Dec 29 17:49 15_level.json
-rw-rw-r--. 1 marcus marcus 162M Dec 29 17:48 14_level.json
-rw-rw-r--. 1 marcus marcus 146M Dec 29 17:48 13_level.json
-rw-rw-r--. 1 marcus marcus 131M Dec 29 17:48 12_level.json
-rw-rw-r--. 1 marcus marcus 116M Dec 29 17:48 11_level.json
-rw-rw-r--. 1 marcus marcus 101M Dec 29 17:48 10_level.json
-rw-rw-r--. 1 marcus marcus  87M Dec 29 17:48 9_level.json
-rw-rw-r--. 1 marcus marcus  73M Dec 29 17:48 8_level.json
-rw-rw-r--. 1 marcus marcus  60M Dec 29 17:48 7_level.json
-rw-rw-r--. 1 marcus marcus  47M Dec 29 17:48 6_level.json
-rw-rw-r--. 1 marcus marcus  36M Dec 29 17:48 5_level.json
-rw-rw-r--. 1 marcus marcus  25M Dec 29 17:48 4_level.json
-rw-rw-r--. 1 marcus marcus  17M Dec 29 17:48 3_level.json
-rw-rw-r--. 1 marcus marcus 9.7M Dec 29 17:48 2_level.json
